Dplyr’s select - tips and tricks - Data & Science: A blog
…
We can imagine situations where we want to only grab a specific column or two in a tidy fashion - dplyr::select is literally made for that!

x %>%
        select(id, value2)

## # A tibble: 100 x 2
##       id value2
##    <int>  <dbl>
##  1     1   1.86
##  2     2   0.43
##  3     3   1.39
##  4     4   3.07
##  5     5   1.01
##  6     6   1.58
##  7     7   2.67
##  8     8   1.08
##  9     9   1.59
## 10    10   1.64
## # ... with 90 more rows

Now, what if we want to remove a column?

x %>%
        select(-id)

## # A tibble: 100 x 8
##    category1 category2 value1 value2 value3 value4 value5 value6
##    <chr>     <chr>      <dbl>  <dbl>  <dbl>  <dbl>  <dbl>  <dbl>
##  1 a         red         0.92   1.86   1.41   3.15   3.92   3.32
##  2 a         red         0.12   0.43   2.1    3.7    3.46   5.05
##  3 a         blue        0.18   1.39   1.4    3.67   3.91   3.83
##  4 a         red         0.56   3.07   2.39   1.95   3.52   6.42
##  5 a         green       0.44   1.01   0.95   3.22   2.41   2.74
##  6 a         red         0.1    1.58   3.6    3.2    6.48   5.65
##  7 a         green       0.34   2.67   1.69   2.73   4.12   4.97
##  8 a         green       0.16   1.08   1.37   2.68   5.14   4.92
##  9 a         blue        0.37   1.59   2.31   2.99   5.4    4.51
## 10 a         green       0.64   1.64   1.94   4.77   4.54   4.67
## # ... with 90 more rows

That’s right, you can simply drop columns by adding a - to the column name.

What about renaming a column?

x %>%
        select(color = category2)

## # A tibble: 100 x 1
##    color
##    <chr>
##  1 red  
##  2 red  
##  3 blue 
##  4 red  
##  5 green
##  6 red  
##  7 green
##  8 green
##  9 blue 
## 10 green
## # ... with 90 more rows

This is a handy alternative to using dplyr::rename.

Ok, but what if we want to rename a column, and grab every other column except for one?

x %>%
        select(color = category2, everything(), -id)

## # A tibble: 100 x 8
##    color category1 value1 value2 value3 value4 value5 value6
##    <chr> <chr>      <dbl>  <dbl>  <dbl>  <dbl>  <dbl>  <dbl>
##  1 red   a           0.92   1.86   1.41   3.15   3.92   3.32
##  2 red   a           0.12   0.43   2.1    3.7    3.46   5.05
##  3 blue  a           0.18   1.39   1.4    3.67   3.91   3.83
##  4 red   a           0.56   3.07   2.39   1.95   3.52   6.42
##  5 green a           0.44   1.01   0.95   3.22   2.41   2.74
##  6 red   a           0.1    1.58   3.6    3.2    6.48   5.65
##  7 green a           0.34   2.67   1.69   2.73   4.12   4.97
##  8 green a           0.16   1.08   1.37   2.68   5.14   4.92
##  9 blue  a           0.37   1.59   2.31   2.99   5.4    4.51
## 10 green a           0.64   1.64   1.94   4.77   4.54   4.67
## # ... with 90 more rows

I think of dplyr::everything (actually from the tidyselect package) as analogous to SELECT * in SQL.

Well, what if we want to grab all of our ‘value’ columns?

x %>%
        select(starts_with('value'))

## # A tibble: 100 x 6
##    value1 value2 value3 value4 value5 value6
##     <dbl>  <dbl>  <dbl>  <dbl>  <dbl>  <dbl>
##  1   0.92   1.86   1.41   3.15   3.92   3.32
##  2   0.12   0.43   2.1    3.7    3.46   5.05
##  3   0.18   1.39   1.4    3.67   3.91   3.83
##  4   0.56   3.07   2.39   1.95   3.52   6.42
##  5   0.44   1.01   0.95   3.22   2.41   2.74
##  6   0.1    1.58   3.6    3.2    6.48   5.65
##  7   0.34   2.67   1.69   2.73   4.12   4.97
##  8   0.16   1.08   1.37   2.68   5.14   4.92
##  9   0.37   1.59   2.31   2.99   5.4    4.51
## 10   0.64   1.64   1.94   4.77   4.54   4.67
## # ... with 90 more rows

This is particularly handy for selections after pivoting wider where we may have many columns that have a certian prefix. See also dplyr::one_of.

Well what if we only want a few value columns?

Say, 1-4?

x %>%
        select(num_range(prefix = 'value', range = 1:4))

## # A tibble: 100 x 4
##    value1 value2 value3 value4
##     <dbl>  <dbl>  <dbl>  <dbl>
##  1   0.92   1.86   1.41   3.15
##  2   0.12   0.43   2.1    3.7 
##  3   0.18   1.39   1.4    3.67
##  4   0.56   3.07   2.39   1.95
##  5   0.44   1.01   0.95   3.22
##  6   0.1    1.58   3.6    3.2 
##  7   0.34   2.67   1.69   2.73
##  8   0.16   1.08   1.37   2.68
##  9   0.37   1.59   2.31   2.99
## 10   0.64   1.64   1.94   4.77
## # ... with 90 more rows
…
